{
  "file_generated_by": "FlutterFire CLI",
  "purpose": "FirebaseAppID & ProjectID for this Firebase app in this directory",
  "GOOGLE_APP_ID": "1:432383556408:ios:6daaa1bc2796f4f0fcdfcd",
  "FIREBASE_PROJECT_ID": "huecos-4d64a",
  "GCM_SENDER_ID": "432383556408"
}